gamemodes\CTF$4.class
gamemodes\CTF$12.class
gamemodes\CTF$15.class
mercenaries\Mercenary.class
wrappers\WrapperPlayServerPlayerInfo.class
gamemodes\CTF$1.class
chat\Team.class
gamemodes\CTF$7.class
gamemodes\GamemodeInterface.class
mercenaries\Inventory.class
utils\Database.class
gamemodes\CTF$16.class
mercenaries\Item.class
commands\Attach.class
utils\MySQL.class
listeners\PlayerInfoPacket.class
commands\Move.class
gamemodes\CTF$3.class
commands\Skin.class
gamemodes\CTF$10.class
commands\Remove.class
commands\Help.class
gamemodes\CTF$2.class
gamemodes\CTF$6.class
gamemodes\CTF$9.class
commands\Restart.class
gamemodes\CTF$13.class
CraftFortress\CraftFortressPlugin.class
commands\Setup.class
gamemodes\CTF$5.class
CraftFortress\Map.class
gamemodes\CTF$11.class
gamemodes\CTF$14.class
gamemodes\CTF.class
gamemodes\CTF$8.class
commands\Kick.class
wrappers\AbstractPacket.class
